{
  "project_info": {
    "project_number": "880188471921",
    "firebase_url": "https://boguitest.firebaseio.com",
    "project_id": "boguitest",
    "storage_bucket": "boguitest.appspot.com"
  },
  "client": [
    {
      "client_info": {
        "mobilesdk_app_id": "1:880188471921:android:f7798dd5496c53be0b39d0",
        "android_client_info": {
          "package_name": "com.bogui"
        }
      },
      "oauth_client": [
        {
          "client_id": "880188471921-k6io458t1u863as3moivtm4otst9p057.apps.googleusercontent.com",
          "client_type": 3
        }
      ],
      "api_key": [
        {
          "current_key": "AIzaSyDWjquEIyyhv4hzz2mGec3rVbqBM7KPmv4"
        }
      ],
      "services": {
        "appinvite_service": {
          "other_platform_oauth_client": [
            {
              "client_id": "880188471921-k6io458t1u863as3moivtm4otst9p057.apps.googleusercontent.com",
              "client_type": 3
            }
          ]
        }
      }
    },
    {
      "client_info": {
        "mobilesdk_app_id": "1:880188471921:android:99abb17b32a59ecc0b39d0",
        "android_client_info": {
          "package_name": "com.limonbyte.bogui"
        }
      },
      "oauth_client": [
        {
          "client_id": "880188471921-k6io458t1u863as3moivtm4otst9p057.apps.googleusercontent.com",
          "client_type": 3
        }
      ],
      "api_key": [
        {
          "current_key": "AIzaSyDWjquEIyyhv4hzz2mGec3rVbqBM7KPmv4"
        }
      ],
      "services": {
        "appinvite_service": {
          "other_platform_oauth_client": [
            {
              "client_id": "880188471921-k6io458t1u863as3moivtm4otst9p057.apps.googleusercontent.com",
              "client_type": 3
            }
          ]
        }
      }
    },
    {
      "client_info": {
        "mobilesdk_app_id": "1:880188471921:android:d89e0d140009338c0b39d0",
        "android_client_info": {
          "package_name": "com.limonbyte.boguiconductor"
        }
      },
      "oauth_client": [
        {
          "client_id": "880188471921-k6io458t1u863as3moivtm4otst9p057.apps.googleusercontent.com",
          "client_type": 3
        }
      ],
      "api_key": [
        {
          "current_key": "AIzaSyDWjquEIyyhv4hzz2mGec3rVbqBM7KPmv4"
        }
      ],
      "services": {
        "appinvite_service": {
          "other_platform_oauth_client": [
            {
              "client_id": "880188471921-k6io458t1u863as3moivtm4otst9p057.apps.googleusercontent.com",
              "client_type": 3
            }
          ]
        }
      }
    },
    {
      "client_info": {
        "mobilesdk_app_id": "1:880188471921:android:086148a71bbccdc10b39d0",
        "android_client_info": {
          "package_name": "com.limonbyte.boguiconductoreact"
        }
      },
      "oauth_client": [
        {
          "client_id": "880188471921-k6io458t1u863as3moivtm4otst9p057.apps.googleusercontent.com",
          "client_type": 3
        }
      ],
      "api_key": [
        {
          "current_key": "AIzaSyDWjquEIyyhv4hzz2mGec3rVbqBM7KPmv4"
        }
      ],
      "services": {
        "appinvite_service": {
          "other_platform_oauth_client": [
            {
              "client_id": "880188471921-k6io458t1u863as3moivtm4otst9p057.apps.googleusercontent.com",
              "client_type": 3
            }
          ]
        }
      }
    }
  ],
  "configuration_version": "1"
}
